%YAML 1.1
%TAG !u! tag:unity3d.com,2011:
--- !u!1045 &1
EditorBuildSettings:
  m_ObjectHideFlags: 0
  serializedVersion: 2
  m_Scenes:
  - enabled: 0
    path: 
    guid: 00000000000000000000000000000000
  m_configObjects:
    com.unity.input.settings: {fileID: 11400000, guid: 4c38daa6a50aeb64c9460e4b75131a2f, type: 2}
